NAMA,EMAIL
John Doe,john.doe@example.com
Jane Smith,jane.smith@example.com
David Johnson,david.johnson@example.com
Emily Brown,emily.brown@example.com
Michael Wilson,michael.wilson@example.com
Sarah Taylor,sarah.taylor@example-com
Christopher Lee,christopher.lee@example.com
Amanda Clark,amanda.clark@example.com
Matthew Turner,matthew.turner@example.com
Jessica White,jessica.white@example.com
Daniel Anderson,daniel.anderson@example.com
Ashley Martinez,ashley.martinez@example@com
James Thompson,james.thompson@example.com
Olivia Garcia,olivia.garcia@example.com
Ryan Hernandez,ryan.hernandez@example.com
Sophia King,sophia.king@example.com
Benjamin Young,benjamin.young@example.com
Isabella Hall,"isabella.hall@example,com"
Jacob Martinez,jacob.martinez@example.com
Emma Johnson,emma.johnson@example.com
Ethan Brown,ethan.brown@example^com
Mia Davis,mia.davis@example.com
Alexander Clark,alexander.clark@example.com
Charlotte Harris,charlotte.harris@examplecom
William Moore,william.moore@example.com
Madison Lee,madison.lee@example.com
Noah Allen,noah.allen@example.com
Grace Lewis,grace.lewis@example.com
Samuel Adams,samuel.adams@example.com
Lily Wilson,lily.wilson@example.com
Lucas Parker,lucas.parker@example!@#com
Natalie Wright,natalie.wright@example.com
Aiden Scott,aiden.scott@example.com
Ella Green,ella.green@example.com
Christopher Young,christopher.young@example.com
Zoe Martinez,zoe.martinez@example.com
Jack Johnson,jack.johnson@example.com
Victoria Taylor,victoria.taylor@example
Daniel Garcia,daniel.garcia@example.com
Ava Hernandez,ava.hernandez@example.com
Matthew Miller,matthew.miller@example.com
Chloe Anderson,chloe.anderson@example.com
Andrew Brown,andrew.brown@example.com.a.s.s.s
Samantha Wilson,samantha.wilson@example.com
Joseph Smith,joseph.smith@example.com
Evelyn Hall,evelyn.hall@example.com
David Lopez,david.lopez@example.com
Sophia Moore,sophia.moore@example.com
William White,william.white@example.com
Harper Thompson,harper.thompson@example.com
Elijah Baker,elijah.baker@example.com78787
Mia Johnson,mia.johnson@example.com
Henry Adams,henry.adams@example.com
Elizabeth Brown,elizabeth.brown@example.com
Liam Turner,liam.turner@example.com=-
Addison Wright,addison.wright@example.com
Avery Martinez,avery.martinez@example.com
Evelyn Davis,evelyn.davis@example.com
Logan Garcia,logan.garcia@example.com
Natalie Hill,natalie.hill@example.com
Carter Clark,carter.clark@example.com
Audrey Lewis,audrey.lewis@example.com%&^%(^
Jayden Mitchell,jayden.mitchell@example.com
Scarlett Carter,scarlett.carter@example.com
Thomas Moore,thomas.moore@example.com
Brooklyn Hall,brooklyn.hall@example.com
Luke Parker,luke.parker@example.com
Sofia Johnson,sofia.johnson@example.com
Cameron Brown,cameron.brown@example.com
Layla Anderson,layla.anderson@example.com129680916
Gavin Wilson,gavin.wilson@example.com
Zoey Davis,zoey.davis@example.com
Cooper Wright,cooper.wright@example.com
Penelope Martinez,penelope.martinez@example.com
Xavier Taylor,xavier.taylor@example.com
Alina Adams,alina.adams@example.com
Isaiah King,isaiah.king@example.com
Julia Thompson,julia.thompson@example.com
Ryder Harris,ryder.harris@example.com%*%&(
Clara Jackson,clara.jackson@example.com
Blake Brown,blake.brown@example.com
Stella Garcia,stella.garcia@example.com
Greyson Hall,greyson.hall@example.com
Vivian Lee,vivian.lee@example.com
Eliana Lopez,eliana.lopez@example123
Tristan Clark,tristan.clark@example.com
Lila Wilson,lila.wilson@example.com
Muhammad Baker,muhammad.baker@example.com
Hailey Green,hailey.green@example.com
Johnathan Adams,johnathan.adams@example#^%#$
Natalie Scott,natalie.scott@example.com
Aaron Moore,aaron.moore@example.com
Elena Parker,elena.parker@example.com
Grayson Taylor,grayson.taylor@example.comasdnfo